{
    "name": "ClientUser",
    "fields": [
        {
            "fieldName": "clientUserName",
            "fieldType": "String"
        },
        {
            "fieldName": "clientPassword",
            "fieldType": "String"
        },
        {
            "fieldName": "clientAuthority",
            "fieldType": "String"
        },
        {
            "fieldName": "createdDate",
            "fieldType": "ZonedDateTime"
        },
        {
            "fieldName": "modifiedDate",
            "fieldType": "ZonedDateTime"
        },
        {
            "fieldName": "createdBy",
            "fieldType": "String"
        },
        {
            "fieldName": "modifiedBy",
            "fieldType": "String"
        }
    ],
    "relationships": [],
    "changelogDate": "20200113023452",
    "entityTableName": "client_user",
    "dto": "mapstruct",
    "pagination": "pagination",
    "service": "serviceImpl",
    "jpaMetamodelFiltering": false,
    "fluentMethods": true,
    "clientRootFolder": "OneCall",
    "applications": "*",
    "microserviceName": "OneCall"
}