{
    "name": "MsisdnValue",
    "fields": [
        {
            "fieldName": "amount",
            "fieldType": "Double"
        },
        {
            "fieldName": "free",
            "fieldType": "String"
        },
        {
            "fieldName": "freeData",
            "fieldType": "String"
        },
        {
            "fieldName": "freeSms",
            "fieldType": "String"
        },
        {
            "fieldName": "freeVoice",
            "fieldType": "String"
        },
        {
            "fieldName": "dataId",
            "fieldType": "String"
        },
        {
            "fieldName": "point",
            "fieldType": "String"
        },
        {
            "fieldName": "validity",
            "fieldType": "String"
        },
        {
            "fieldName": "createdDate",
            "fieldType": "ZonedDateTime"
        },
        {
            "fieldName": "modifiedDate",
            "fieldType": "ZonedDateTime"
        },
        {
            "fieldName": "createdBy",
            "fieldType": "String"
        },
        {
            "fieldName": "modifiedBy",
            "fieldType": "String"
        }
    ],
    "relationships": [
        {
            "relationshipType": "many-to-one",
            "relationshipName": "oneCall",
            "otherEntityName": "oneCall",
            "otherEntityField": "id",
            "otherEntityRelationshipName": "msisdnValues"
        }
    ],
    "changelogDate": "20190724053439",
    "entityTableName": "msisdn_value",
    "dto": "mapstruct",
    "pagination": "pagination",
    "service": "serviceImpl",
    "jpaMetamodelFiltering": false,
    "fluentMethods": true,
    "clientRootFolder": "OneCall",
    "applications": "*",
    "microserviceName": "OneCall"
}