{
    "name": "Plan",
    "fields": [
        {
            "fieldName": "keyword",
            "fieldType": "String"
        },
        {
            "fieldName": "planRenewal",
            "fieldType": "PlanRenewal",
            "fieldValues": "Daily,Weekly,Monthly,Yearly"
        },
        {
            "fieldName": "planType",
            "fieldType": "PlanType",
            "fieldValues": "Data,Call,Validity"
        },
        {
            "fieldName": "amount",
            "fieldType": "String"
        },
        {
            "fieldName": "price",
            "fieldType": "String"
        },
        {
            "fieldName": "dataMode",
            "fieldType": "DataMode",
            "fieldValues": "VOICE,DATA"
        },
        {
            "fieldName": "expireDays",
            "fieldType": "String"
        },
        {
            "fieldName": "description",
            "fieldType": "String"
        },
        {
            "fieldName": "enable",
            "fieldType": "Boolean"
        },
        {
            "fieldName": "titleA",
            "fieldType": "String"
        },
        {
            "fieldName": "subtitleA",
            "fieldType": "String"
        },
        {
            "fieldName": "titleB",
            "fieldType": "String"
        },
        {
            "fieldName": "subtitleB",
            "fieldType": "String"
        },
        {
            "fieldName": "unlimitedCall",
            "fieldType": "Boolean"
        }
    ],
    "relationships": [
        {
            "relationshipType": "one-to-many",
            "relationshipName": "planTransactions",
            "otherEntityName": "planTransaction",
            "otherEntityRelationshipName": "plan"
        }
    ],
    "changelogDate": "20190920022641",
    "entityTableName": "plan",
    "dto": "mapstruct",
    "pagination": "pagination",
    "service": "serviceImpl",
    "jpaMetamodelFiltering": false,
    "fluentMethods": true,
    "clientRootFolder": "OneCall",
    "applications": "*",
    "microserviceName": "OneCall"
}